{
  "alpine-gear-co": {
    "products/search": {
      "query": "hiking boots",
      "results": [
        {
          "id": "ag-boot-001",
          "name": "Alpine Summit Pro Hiking Boots",
          "brand": "Alpine Gear Co",
          "category": "hiking-boots",
          "price": 289.99,
          "originalPrice": 329.99,
          "discount": 0.12,
          "rating": 4.8,
          "reviewCount": 247,
          "inStock": true,
          "stockLevel": 15,
          "images": [
            "https://cdn.alpinegear.co/boots/summit-pro-main.jpg",
            "https://cdn.alpinegear.co/boots/summit-pro-side.jpg"
          ],
          "features": [
            "Waterproof Gore-Tex membrane",
            "Vibram sole for superior grip",
            "Lightweight carbon fiber shank",
            "Temperature rated to -20°F"
          ],
          "specifications": {
            "weight": "2.1 lbs",
            "material": "Full-grain leather",
            "waterproof": true,
            "breathable": true,
            "insulation": "Thinsulate 400g"
          },
          "activities": ["hiking", "mountaineering", "backpacking"],
          "terrain": ["rocky", "muddy", "snow"],
          "seasonality": ["fall", "winter", "spring"],
          "expertRating": 9.2,
          "tags": ["waterproof", "insulated", "durable", "lightweight"]
        },
        {
          "id": "ag-boot-002", 
          "name": "Trailblazer Lightweight Hiking Boots",
          "brand": "Alpine Gear Co",
          "category": "hiking-boots",
          "price": 179.99,
          "originalPrice": 199.99,
          "discount": 0.10,
          "rating": 4.5,
          "reviewCount": 189,
          "inStock": true,
          "stockLevel": 28,
          "images": [
            "https://cdn.alpinegear.co/boots/trailblazer-main.jpg",
            "https://cdn.alpinegear.co/boots/trailblazer-profile.jpg"
          ],
          "features": [
            "Breathable mesh panels",
            "Quick-dry synthetic materials", 
            "Ankle support system",
            "EVA midsole cushioning"
          ],
          "specifications": {
            "weight": "1.6 lbs",
            "material": "Synthetic mesh/leather",
            "waterproof": false,
            "breathable": true,
            "insulation": "None"
          },
          "activities": ["day-hiking", "trail-running", "casual-walking"],
          "terrain": ["trail", "rocky", "dry"],
          "seasonality": ["spring", "summer", "fall"],
          "expertRating": 8.7,
          "tags": ["lightweight", "breathable", "flexible", "quick-dry"]
        }
      ],
      "pagination": {
        "page": 1,
        "totalPages": 5,
        "totalResults": 47,
        "resultsPerPage": 20
      },
      "filters": {
        "categories": ["hiking-boots", "trail-shoes", "mountaineering-boots"],
        "brands": ["Alpine Gear Co", "Mountain Peak", "TrailMaster"],
        "priceRanges": ["$100-200", "$200-300", "$300+"],
        "features": ["waterproof", "breathable", "insulated", "lightweight"],
        "activities": ["hiking", "backpacking", "mountaineering", "trail-running"]
      },
      "enhanced": true,
      "personalizationApplied": true,
      "recommendationScore": 0.92
    },
    
    "products/ag-boot-001": {
      "id": "ag-boot-001",
      "name": "Alpine Summit Pro Hiking Boots",
      "brand": "Alpine Gear Co",
      "category": "hiking-boots", 
      "price": 289.99,
      "originalPrice": 329.99,
      "discount": 0.12,
      "rating": 4.8,
      "reviewCount": 247,
      "inStock": true,
      "stockLevel": 15,
      "description": "The Alpine Summit Pro represents the pinnacle of hiking boot engineering. Designed for serious adventurers who demand uncompromising performance in challenging mountain conditions. These boots combine traditional craftsmanship with cutting-edge materials to deliver exceptional durability, comfort, and protection.",
      "images": [
        "https://cdn.alpinegear.co/boots/summit-pro-main.jpg",
        "https://cdn.alpinegear.co/boots/summit-pro-side.jpg",
        "https://cdn.alpinegear.co/boots/summit-pro-back.jpg",
        "https://cdn.alpinegear.co/boots/summit-pro-sole.jpg"
      ],
      "features": [
        "Waterproof Gore-Tex membrane",
        "Vibram sole for superior grip", 
        "Lightweight carbon fiber shank",
        "Temperature rated to -20°F",
        "Ankle support collar",
        "Moisture-wicking lining"
      ],
      "specifications": {
        "weight": "2.1 lbs (per pair)",
        "upperMaterial": "Full-grain leather",
        "lining": "Gore-Tex Performance Comfort",
        "midsole": "Dual-density EVA",
        "outsole": "Vibram Megagrip",
        "shank": "Carbon fiber",
        "insulation": "Thinsulate 400g",
        "waterproof": true,
        "breathable": true,
        "temperatureRating": "-20°F to 60°F"
      },
      "sizing": {
        "availableSizes": ["7", "7.5", "8", "8.5", "9", "9.5", "10", "10.5", "11", "11.5", "12"],
        "fitNotes": "Runs slightly large, consider ordering 0.5 size down",
        "widthOptions": ["Regular", "Wide"]
      },
      "activities": ["hiking", "mountaineering", "backpacking", "alpine-climbing"],
      "terrain": ["rocky", "muddy", "snow", "ice", "technical"],
      "seasonality": ["fall", "winter", "spring"],
      "expertRating": 9.2,
      "proTips": [
        "Allow 2-3 weeks for proper break-in",
        "Use with merino wool socks for best performance",
        "Apply leather conditioner monthly with regular use"
      ],
      "sustainability": {
        "materials": "Responsibly sourced leather",
        "manufacturing": "Fair trade certified factory",
        "packaging": "100% recycled materials"
      },
      "warranty": "2 years against manufacturing defects",
      "tags": ["waterproof", "insulated", "durable", "lightweight", "pro-grade"],
      "recommendations": [
        {
          "id": "ag-sock-001",
          "name": "Merino Wool Hiking Socks",
          "category": "accessories",
          "price": 24.99,
          "reason": "Perfect complement for moisture management"
        },
        {
          "id": "ag-care-001", 
          "name": "Leather Boot Care Kit",
          "category": "maintenance",
          "price": 19.99,
          "reason": "Extend boot life with proper maintenance"
        },
        {
          "id": "ag-insole-001",
          "name": "Custom Arch Support Insoles",
          "category": "accessories", 
          "price": 39.99,
          "reason": "Enhanced comfort for long hikes"
        }
      ],
      "reviews": [
        {
          "id": "review-001",
          "rating": 5,
          "title": "Exceptional performance in harsh conditions",
          "author": "MountainMike_CO",
          "verified": true,
          "content": "Used these on a 14-day Patagonia expedition. Kept feet dry and warm in snow, sleet, and river crossings. Outstanding grip on technical terrain.",
          "date": "2024-08-15",
          "helpful": 23,
          "activities": ["mountaineering", "backpacking"]
        },
        {
          "id": "review-002",
          "rating": 4,
          "title": "Excellent boots, long break-in period",
          "author": "TrailRunner_Sarah",
          "verified": true,
          "content": "Amazing quality and durability. Took about 50 miles to break in properly, but now they're like walking on clouds. Worth the investment.",
          "date": "2024-07-28",
          "helpful": 18,
          "activities": ["hiking", "backpacking"]
        }
      ],
      "enhanced": true,
      "personalizationApplied": true
    },
    
    "gear-finder": {
      "query": {
        "activity": "backpacking",
        "duration": "3-5 days",
        "season": "fall",
        "experience": "intermediate"
      },
      "recommendations": {
        "essentialGear": [
          {
            "category": "Shelter",
            "priority": "critical",
            "items": [
              {
                "id": "ag-tent-001",
                "name": "Alpine Base 3-Season Tent",
                "price": 349.99,
                "weight": "3.2 lbs",
                "features": ["2-person", "freestanding", "waterproof"],
                "reason": "Perfect for fall conditions with excellent wind resistance"
              }
            ]
          },
          {
            "category": "Sleep System", 
            "priority": "critical",
            "items": [
              {
                "id": "ag-bag-001",
                "name": "Summit Sleep System 20°F",
                "price": 279.99,
                "weight": "2.8 lbs",
                "features": ["down-fill", "compressible", "20°F-rated"],
                "reason": "Ideal temperature rating for fall backpacking"
              },
              {
                "id": "ag-pad-001",
                "name": "Comfort Pro Sleeping Pad",
                "price": 89.99,
                "weight": "1.1 lbs",
                "features": ["R-value 4.2", "self-inflating", "repair-kit"],
                "reason": "Provides insulation from cold ground"
              }
            ]
          },
          {
            "category": "Cooking",
            "priority": "high",
            "items": [
              {
                "id": "ag-stove-001",
                "name": "Compact Camp Stove",
                "price": 79.99,
                "weight": "0.4 lbs",
                "features": ["piezo-ignition", "wind-resistant", "fuel-efficient"],
                "reason": "Reliable cooking system for multi-day trips"
              }
            ]
          }
        ],
        "packingList": [
          "Navigation (map, compass, GPS)",
          "Sun protection (sunglasses, sunscreen, hat)",
          "First aid supplies",
          "Fire starter (waterproof matches/lighter)",
          "Repair kit and tools",
          "Extra food (beyond planned meals)",
          "Extra clothes (insulation, rain protection)",
          "Emergency shelter"
        ],
        "totalWeight": "12.8 lbs",
        "estimatedCost": "$1,847.95",
        "expertTips": [
          "Test all gear before your trip",
          "Pack a bear canister if required in your area", 
          "Check weather conditions and adjust gear accordingly",
          "Inform someone of your itinerary and expected return"
        ],
        "enhanced": true,
        "personalizationApplied": true,
        "confidenceScore": 0.94
      }
    },

    "categories/hiking-gear/products": {
      "category": "hiking-gear",
      "subcategories": [
        {
          "name": "Footwear",
          "productCount": 47,
          "featured": ["hiking-boots", "trail-shoes", "gaiters"]
        },
        {
          "name": "Apparel", 
          "productCount": 73,
          "featured": ["base-layers", "hiking-pants", "rain-jackets"]
        },
        {
          "name": "Packs",
          "productCount": 29,
          "featured": ["day-packs", "overnight-packs", "hydration-packs"]
        }
      ],
      "featuredProducts": [
        {
          "id": "ag-pack-001",
          "name": "Trailmaster 35L Daypack",
          "brand": "Alpine Gear Co",
          "category": "backpacks",
          "price": 129.99,
          "rating": 4.6,
          "reviewCount": 156,
          "image": "https://cdn.alpinegear.co/packs/trailmaster-35l.jpg",
          "features": ["Hydration compatible", "Rain cover included", "Ergonomic design"],
          "activities": ["day-hiking", "photography", "travel"],
          "tags": ["lightweight", "comfortable", "versatile"]
        },
        {
          "id": "ag-jacket-001", 
          "name": "Storm Shield Rain Jacket",
          "brand": "Alpine Gear Co",
          "category": "jackets",
          "price": 199.99,
          "rating": 4.7,
          "reviewCount": 203,
          "image": "https://cdn.alpinegear.co/jackets/storm-shield.jpg",
          "features": ["3-layer Gore-Tex", "Pit zips", "Packable"],
          "activities": ["hiking", "mountaineering", "cycling"],
          "tags": ["waterproof", "breathable", "packable"]
        }
      ],
      "filters": {
        "activities": ["day-hiking", "backpacking", "mountaineering", "trail-running"],
        "brands": ["Alpine Gear Co", "Mountain Peak", "TrailMaster", "Summit Series"],
        "priceRanges": ["Under $50", "$50-100", "$100-200", "$200-300", "$300+"],
        "features": ["waterproof", "breathable", "lightweight", "packable", "insulated"]
      },
      "enhanced": true,
      "personalizationApplied": true
    }
  },

  "mountain-sports-api": {
    "gear/search": {
      "query": "climbing gear",
      "results": [
        {
          "id": "ms-climb-001",
          "name": "Pro Climber Dynamic Rope 10.2mm",
          "brand": "Mountain Peak",
          "category": "climbing-gear",
          "price": 189.99,
          "originalPrice": 219.99,
          "discount": 0.14,
          "rating": 4.9,
          "reviewCount": 89,
          "inStock": true,
          "stockLevel": 12,
          "specifications": {
            "diameter": "10.2mm",
            "length": "70m",
            "type": "Dynamic single rope",
            "certification": "UIAA/EN certified",
            "weight": "65g/m"
          },
          "features": [
            "Dry treatment coating",
            "Middle mark indicator", 
            "High fall rating (8+)",
            "Excellent handling"
          ],
          "activities": ["sport-climbing", "traditional-climbing", "mountaineering"],
          "tags": ["UIAA-certified", "dry-treated", "single-rope"]
        },
        {
          "id": "ms-climb-002",
          "name": "Alpine Quickdraw Set (6-pack)",
          "brand": "Summit Series",
          "category": "climbing-gear", 
          "price": 149.99,
          "rating": 4.7,
          "reviewCount": 134,
          "inStock": true,
          "stockLevel": 8,
          "specifications": {
            "gateType": "Straight/bent combination",
            "strength": "24kN major axis",
            "weight": "95g each",
            "dogboneLength": "12cm"
          },
          "features": [
            "Keylock nose design",
            "Color-coded for easy identification",
            "Ergonomic gate shape",
            "Versatile length"
          ],
          "activities": ["sport-climbing", "alpine-climbing"],
          "tags": ["quickdraw-set", "keylock", "lightweight"]
        }
      ],
      "totalResults": 78,
      "enhanced": true,
      "personalizationApplied": true
    },
    
    "activities/mountaineering/gear": {
      "activity": "mountaineering",
      "difficulty": "advanced",
      "essentialGear": {
        "protection": [
          {
            "id": "ms-helmet-001",
            "name": "Alpine Protection Helmet",
            "price": 129.99,
            "category": "safety-gear",
            "priority": "critical",
            "features": ["CE certified", "Adjustable", "Lightweight"],
            "reason": "Essential protection from rockfall and impact"
          }
        ],
        "climbing": [
          {
            "id": "ms-axe-001", 
            "name": "Technical Ice Axe 60cm",
            "price": 179.99,
            "category": "climbing-gear",
            "priority": "critical",
            "features": ["Curved shaft", "Aggressive pick", "Ergonomic grip"],
            "reason": "Required for technical alpine terrain"
          }
        ],
        "footwear": [
          {
            "id": "ms-crampon-001",
            "name": "12-Point Steel Crampons", 
            "price": 149.99,
            "category": "climbing-gear",
            "priority": "critical",
            "features": ["Steel construction", "Anti-balling plates", "Adjustable"],
            "reason": "Traction on ice and hard snow"
          }
        ]
      },
      "skillLevelRequirements": [
        "Glacier travel experience",
        "Crevasse rescue training",
        "Advanced rope techniques",
        "Alpine climbing fundamentals"
      ],
      "enhanced": true,
      "personalizationApplied": true
    }
  },

  "adventure-outfitters": {
    "expeditions/gear": {
      "expeditionType": "high-altitude",
      "duration": "21+ days",
      "essentialGear": [
        {
          "category": "Shelter",
          "items": [
            {
              "id": "ao-tent-001",
              "name": "Expedition Base Camp Tent",
              "price": 899.99,
              "features": ["4-season", "Wind-resistant to 80mph", "Geodesic design"],
              "weight": "8.2 lbs",
              "reason": "Designed for extreme high-altitude conditions"
            }
          ]
        },
        {
          "category": "Navigation",
          "items": [
            {
              "id": "ao-gps-001",
              "name": "Professional GPS Navigator",
              "price": 399.99,
              "features": ["Military-grade", "Extended battery", "Altimeter/barometer"],
              "weight": "0.6 lbs", 
              "reason": "Critical for navigation in remote areas"
            }
          ]
        }
      ],
      "totalWeight": "45.8 lbs",
      "estimatedCost": "$8,947.99",
      "enhanced": true,
      "personalizationApplied": true
    }
  }
}